…
I’m going to show how this table could be replicated using R and the `mutate()`-`map()` workflow above.

First, let’s load one single spreadsheet with `{tidyxl}` and get some of the code ready that we will need. Let’s get all the paths to all the files in a vector:

```
list_paths <- list.files(path = "~/six_to/spreadsheets",
                         pattern = ".xlsx",
                         full.names = TRUE)
```

Let’s work with the first one. Let’s read it in with `{tidyxl}`:

```
(example_xlsx <- xlsx_cells(list_paths[1]))
## # A tibble: 19,859 x 21
##    sheet       address   row   col is_blank data_type error logical numeric
##    <chr>       <chr>   <int> <int> <lgl>    <chr>     <chr> <lgl>     <dbl>
##  1 Preschedule A1          1     1 FALSE    date      <NA>  NA           NA
##  2 Preschedule B1          1     2 TRUE     blank     <NA>  NA           NA
##  3 Preschedule C1          1     3 TRUE     blank     <NA>  NA           NA
##  4 Preschedule D1          1     4 TRUE     blank     <NA>  NA           NA
##  5 Preschedule E1          1     5 TRUE     blank     <NA>  NA           NA
##  6 Preschedule F1          1     6 TRUE     blank     <NA>  NA           NA
##  7 Preschedule G1          1     7 TRUE     blank     <NA>  NA           NA
##  8 Preschedule H1          1     8 TRUE     blank     <NA>  NA           NA
##  9 Preschedule I1          1     9 TRUE     blank     <NA>  NA           NA
## 10 Preschedule J1          1    10 TRUE     blank     <NA>  NA           NA
## # … with 19,849 more rows, and 12 more variables: date <dttm>, character <chr>,
## #   character_formatted <list>, formula <chr>, is_array <lgl>,
## #   formula_ref <chr>, formula_group <int>, comment <chr>, height <dbl>,
## #   width <dbl>, style_format <chr>, local_format_id <int>
```
…
The comment was made on [this video](https://www.youtube.com/watch?v=vtxb1j0aqJM) in which I create a data set like in the introduction to this blog post, but instead of having 2 groups (and thus 2 datasets), I had 100. Now, in the video this wasn’t an issue, but what if instead of having 100 datasets, I had 15k+? And what if these datasets were quite huge? For example, the largest spreadsheet in the Enron Corpus is 40MiB. Loading it with `{tidyxl}` returns a tibble with 17 million rows, and needs 2GiB of RAM in a clean R session. If you want to read in all the 15k+, you’re simply going to run out of memory even before you could analyze anything. As I’ve written above, the solution would be to loop over each file, do whatever I need done, and save the results in some kind of structure (very likely some complex nested list). Or is it the only solution? Turns out that I tried some things out and found a solution that does not require changing my beloved `mutate()`-`map()` workflow.

Let’s first start by putting the paths in a data frame:

```
(enron <- enframe(list_paths, name = NULL, value = "paths"))
## # A tibble: 15,871 x 1
##    paths                                                                        
##    <chr>                                                                        
##  1 /home/cbrunos/six_to/spreadsheets/albert_meyers__1__1-25act.xlsx             
##  2 /home/cbrunos/six_to/spreadsheets/albert_meyers__2__1-29act.xlsx             
##  3 /home/cbrunos/six_to/spreadsheets/andrea_ring__10__ENRONGAS(1200).xlsx       
##  4 /home/cbrunos/six_to/spreadsheets/andrea_ring__11__ENRONGAS(0101).xlsx       
##  5 /home/cbrunos/six_to/spreadsheets/andrea_ring__12__ENRONGAS(1200).xlsx       
##  6 /home/cbrunos/six_to/spreadsheets/andrea_ring__13__Trader & Products 5-15-01…
##  7 /home/cbrunos/six_to/spreadsheets/andrea_ring__14__Trader & Products 5-16-01…
##  8 /home/cbrunos/six_to/spreadsheets/andrea_ring__15__IFERCnov.xlsx             
##  9 /home/cbrunos/six_to/spreadsheets/andrea_ring__16__ifercdec.xlsx             
## 10 /home/cbrunos/six_to/spreadsheets/andrea_ring__17__IFERCJan.xlsx             
## # … with 15,861 more rows
```

For the purposes of this blog post, let’s limit ourselves to 30 spreadsheets. This won’t impact how the code is going to work, nor memory usage. It’s just that I won’t my post to compile quickly while I’m writing:

```
(enron <- head(enron, 30)) 
## # A tibble: 30 x 1
##    paths                                                                        
##    <chr>                                                                        
##  1 /home/cbrunos/six_to/spreadsheets/albert_meyers__1__1-25act.xlsx             
##  2 /home/cbrunos/six_to/spreadsheets/albert_meyers__2__1-29act.xlsx             
##  3 /home/cbrunos/six_to/spreadsheets/andrea_ring__10__ENRONGAS(1200).xlsx       
##  4 /home/cbrunos/six_to/spreadsheets/andrea_ring__11__ENRONGAS(0101).xlsx       
##  5 /home/cbrunos/six_to/spreadsheets/andrea_ring__12__ENRONGAS(1200).xlsx       
##  6 /home/cbrunos/six_to/spreadsheets/andrea_ring__13__Trader & Products 5-15-01…
##  7 /home/cbrunos/six_to/spreadsheets/andrea_ring__14__Trader & Products 5-16-01…
##  8 /home/cbrunos/six_to/spreadsheets/andrea_ring__15__IFERCnov.xlsx             
##  9 /home/cbrunos/six_to/spreadsheets/andrea_ring__16__ifercdec.xlsx             
## 10 /home/cbrunos/six_to/spreadsheets/andrea_ring__17__IFERCJan.xlsx             
## # … with 20 more rows
```
…
This runs `runif(10)` returning 10 randomly generated numbers, as expected.

```
quo(unif(10))
## <quosure>
## expr: ^unif(10)
## env:  global
```

This instead returns a quosure, which to be honest, is a complex beast. I’m not sure I get it myself. The definition, is that quosures are *quoted expressions that keep track of an environment*. For our practical purposes, we can use that to delay when the data gets read in, and that’s all that matters:

```
(enron <- enron %>%
   mutate(datasets = map(paths, ~quo(xlsx_cells(.)))))
## # A tibble: 30 x 2
##    paths                                                                datasets
##    <chr>                                                                <list>  
##  1 /home/cbrunos/six_to/spreadsheets/albert_meyers__1__1-25act.xlsx     <quosur…
##  2 /home/cbrunos/six_to/spreadsheets/albert_meyers__2__1-29act.xlsx     <quosur…
##  3 /home/cbrunos/six_to/spreadsheets/andrea_ring__10__ENRONGAS(1200).x… <quosur…
##  4 /home/cbrunos/six_to/spreadsheets/andrea_ring__11__ENRONGAS(0101).x… <quosur…
##  5 /home/cbrunos/six_to/spreadsheets/andrea_ring__12__ENRONGAS(1200).x… <quosur…
##  6 /home/cbrunos/six_to/spreadsheets/andrea_ring__13__Trader & Product… <quosur…
##  7 /home/cbrunos/six_to/spreadsheets/andrea_ring__14__Trader & Product… <quosur…
##  8 /home/cbrunos/six_to/spreadsheets/andrea_ring__15__IFERCnov.xlsx     <quosur…
##  9 /home/cbrunos/six_to/spreadsheets/andrea_ring__16__ifercdec.xlsx     <quosur…
## 10 /home/cbrunos/six_to/spreadsheets/andrea_ring__17__IFERCJan.xlsx     <quosur…
## # … with 20 more rows
```
…
}
```

I’ve added this line:

```
x <- eval_tidy(x)
```

This evaluates the quosure, thus instantiating the dataset, and then proceeds to make all the computations. Let’s see what happens when we run this on our lazy tibble:

```
(enron <- enron %>%
   mutate(stats = map(datasets, get_stats)))
## # A tibble: 30 x 3
##    paths                                                  datasets  stats       
##    <chr>                                                  <list>    <list>      
##  1 /home/cbrunos/six_to/spreadsheets/albert_meyers__1__1… <quosure> <tibble [1 …
##  2 /home/cbrunos/six_to/spreadsheets/albert_meyers__2__1… <quosure> <tibble [1 …
##  3 /home/cbrunos/six_to/spreadsheets/andrea_ring__10__EN… <quosure> <tibble [1 …
##  4 /home/cbrunos/six_to/spreadsheets/andrea_ring__11__EN… <quosure> <tibble [1 …
##  5 /home/cbrunos/six_to/spreadsheets/andrea_ring__12__EN… <quosure> <tibble [1 …
##  6 /home/cbrunos/six_to/spreadsheets/andrea_ring__13__Tr… <quosure> <tibble [1 …
##  7 /home/cbrunos/six_to/spreadsheets/andrea_ring__14__Tr… <quosure> <tibble [1 …
##  8 /home/cbrunos/six_to/spreadsheets/andrea_ring__15__IF… <quosure> <tibble [1 …
##  9 /home/cbrunos/six_to/spreadsheets/andrea_ring__16__if… <quosure> <tibble [1 …
## 10 /home/cbrunos/six_to/spreadsheets/andrea_ring__17__IF… <quosure> <tibble [1 …
## # … with 20 more rows
```
…
We see that by using `unnest()`, the two columns inside the nested dataframe get expanded and become columns of the “main” dataframe.

We’re done, but let’s clean up the dataset a little bit and take a look at the results:

```
(
  enron <- enron %>%
    mutate(excel_file = str_remove(paths, "/home/cbrunos/six_to/spreadsheets/")) %>%
    select(-paths, -datasets) %>%
    unnest(cols = stats)
)
## # A tibble: 30 x 4
##    has_formula n_sheets n_formulas excel_file                                   
##    <lgl>          <int>      <int> <chr>                                        
##  1 TRUE              11       3334 albert_meyers__1__1-25act.xlsx               
##  2 TRUE              11       3361 albert_meyers__2__1-29act.xlsx               
##  3 TRUE               4        550 andrea_ring__10__ENRONGAS(1200).xlsx         
##  4 TRUE               4        549 andrea_ring__11__ENRONGAS(0101).xlsx         
##  5 TRUE               4        550 andrea_ring__12__ENRONGAS(1200).xlsx         
##  6 FALSE              0          0 andrea_ring__13__Trader & Products 5-15-01 E…
##  7 FALSE              0          0 andrea_ring__14__Trader & Products 5-16-01 E…
##  8 TRUE               1        169 andrea_ring__15__IFERCnov.xlsx               
##  9 TRUE               1        177 andrea_ring__16__ifercdec.xlsx               
## 10 TRUE               1        162 andrea_ring__17__IFERCJan.xlsx               
## # … with 20 more rows
```
…
